﻿<?xml version="1.0" encoding="utf-8"?>
<svg version="1.1" xmlns:xlink="http://www.w3.org/1999/xlink" width="170px" height="170px" xmlns="http://www.w3.org/2000/svg">
  <g transform="matrix(1 0 0 1 -322 -260 )">
    <path d="M 407 262  C 453.48 262  490 298.52  490 345  C 490 391.48  453.48 428  407 428  C 360.52 428  324 391.48  324 345  C 324 298.52  360.52 262  407 262  Z " fill-rule="nonzero" fill="#ffffff" stroke="none" fill-opacity="0" />
    <path d="M 407 261.5  C 453.76 261.5  490.5 298.24  490.5 345  C 490.5 391.76  453.76 428.5  407 428.5  C 360.24 428.5  323.5 391.76  323.5 345  C 323.5 298.24  360.24 261.5  407 261.5  Z " stroke-width="3" stroke="#3f51b5" fill="none" />
  </g>
</svg>