﻿<?xml version="1.0" encoding="utf-8"?>
<svg version="1.1" xmlns:xlink="http://www.w3.org/1999/xlink" width="2px" height="98px" xmlns="http://www.w3.org/2000/svg">
  <g transform="matrix(1 0 0 1 -1004 -6 )">
    <path d="M 1004.5 6  L 1004.5 103  " stroke-width="1" stroke="#797979" fill="none" />
  </g>
</svg>